session_id,participant_id,status,started_datetime,completed_date_time,time_taken,age,num_approvals,num_rejections,prolific_score,reviewed_at_datetime,entered_code,Country of Birth,Current Country of Residence,Employment Status,First Language,Fluent languages,Nationality,Sex,Student Status
61a64d2f0832042ee52a7cac,5e7d7840f89874402cdb9ebe,RETURNED,2021-11-30 16:11:27.573000,,74705.401384,24,591,0,100,,,CONSENT REVOKED,CONSENT REVOKED,CONSENT REVOKED,CONSENT REVOKED,CONSENT REVOKED,CONSENT REVOKED,CONSENT REVOKED,CONSENT REVOKED
61a64d30e09a3c742814cd43,5c5f2a7a5b87820001c4fa2d,AWAITING REVIEW,2021-11-30 16:11:30.750000,2021-11-30 16:30:54.873000,1164.123,40,154,1,100,,6612B13E,United States,Denmark,"Not in paid work (e.g. homemaker', 'retired or disabled)",DATA EXPIRED,English,United States,Female,No
61a64d3108a39426aa903579,55a6200efdf99b427bda5f58,RETURNED,2021-11-30 16:11:33.037000,,74699.974519,50,1647,23,98,,,CONSENT REVOKED,CONSENT REVOKED,CONSENT REVOKED,CONSENT REVOKED,CONSENT REVOKED,CONSENT REVOKED,CONSENT REVOKED,CONSENT REVOKED
61a64d33ef22cd95dd2f6b04,60d63e407fce934334a5e025,AWAITING REVIEW,2021-11-30 16:12:06.562000,2021-11-30 17:13:30.536000,3683.974,33,209,2,99,,6612B13E,United States,United Kingdom,Part-Time,English,English,United States,Male,No
61a64d349cbf3ea251f0f325,60ccbffae161aadb1880ad6c,RETURNED,2021-11-30 16:11:32.302000,,74700.7448,33,481,2,100,,,CONSENT REVOKED,CONSENT REVOKED,CONSENT REVOKED,CONSENT REVOKED,CONSENT REVOKED,CONSENT REVOKED,CONSENT REVOKED,CONSENT REVOKED
61a64d505543ed636b0982d7,614063897682ffe008db09f0,AWAITING REVIEW,2021-11-30 16:12:03.435000,2021-11-30 16:28:34.609000,991.174,26,163,0,100,,6612B13E,United Kingdom,United Kingdom,Full-Time,English,English,United Kingdom,Male,No
61a64d580f5b2e102b0e4869,61004621ae3256d6deecd84c,AWAITING REVIEW,2021-11-30 16:12:08.019000,2021-11-30 16:43:07.996000,1859.977,33,62,0,100,,6612B13E,Canada,Canada,Full-Time,English,English,Canada,Female,No
61a64d5e020fe72364107215,567dd32b4f0ef30006dbb718,AWAITING REVIEW,2021-11-30 16:13:17.047000,2021-11-30 16:39:51.810000,1594.763,55,3447,1,100,,6612B13E,United States,United States,Full-Time,English,English,United States,Female,No
61a64d611ed94a1a912fc731,5e04595a4fa02aefdb9c9ced,AWAITING REVIEW,2021-11-30 16:12:30.308000,2021-11-30 16:33:05.380000,1235.072,27,70,0,100,,6612B13E,Poland,Poland,Full-Time,Polish,"Polish, English",Poland,Female,Yes
61a64d68573403b2b28f33eb,5ec3b9e83f187802a6aa041e,AWAITING REVIEW,2021-11-30 16:14:48.116000,2021-11-30 16:32:44.928000,1076.812,24,389,0,100,,6612B13E,Greece,Greece,Full-Time,Greek,"English, Greek, German, Spanish, French",Greece,Female,Yes
61a64d705bafd9b2f2205284,5bcfde8c8301810001a33bea,AWAITING REVIEW,2021-11-30 16:12:32.945000,2021-11-30 16:29:32.962000,1020.017,21,210,0,100,,6612B13E,United Kingdom,United Kingdom,Unemployed (and job seeking),English,English,United Kingdom,Male,No
61a64d741ed94a1a912fc733,5f29dc5c7fb008180a6f5305,AWAITING REVIEW,2021-11-30 16:12:49.528000,2021-11-30 16:52:10.353000,2360.825,51,256,2,99,,6612B13E,India,United States,Part-Time,Tamil,"English, Hindi, Tamil",Canada,Female,Yes
61a64d77ad654b7b309c0e37,602506758ee8db264d506754,RETURNED,2021-11-30 16:12:39.549000,,74633.636799,25,171,0,100,,,CONSENT REVOKED,CONSENT REVOKED,CONSENT REVOKED,CONSENT REVOKED,CONSENT REVOKED,CONSENT REVOKED,CONSENT REVOKED,CONSENT REVOKED
61a64d83ee01a34aa9d347fa,610caddd4cac0d49d4261368,RETURNED,2021-11-30 16:13:07.793000,,74605.413437,25,220,0,100,,,CONSENT REVOKED,CONSENT REVOKED,CONSENT REVOKED,CONSENT REVOKED,CONSENT REVOKED,CONSENT REVOKED,CONSENT REVOKED,CONSENT REVOKED
61a64d857282c1ba06ef4d32,6013d4b389b4b22d7e76e61a,RETURNED,2021-11-30 16:12:53.460000,,74619.76512,44,245,0,100,,,CONSENT REVOKED,CONSENT REVOKED,CONSENT REVOKED,CONSENT REVOKED,CONSENT REVOKED,CONSENT REVOKED,CONSENT REVOKED,CONSENT REVOKED
61a64d86045811283fb4febe,60fd9b058f1da0d6103dacfe,AWAITING REVIEW,2021-11-30 16:12:58.326000,2021-11-30 16:30:26.455000,1048.129,43,282,2,100,,6612B13E,United States,United States,Full-Time,English,English,United States,Female,No
61a64d889bd37faf694e2409,5fa2050042e91e3c2bae0ec2,AWAITING REVIEW,2021-11-30 16:12:58.641000,2021-11-30 16:31:15.576000,1096.935,30,1093,4,100,,6612B13E,United States,United States,Full-Time,English,English,United States,Male,No
61a64d9010af4fe76354927d,5c0822f550d77a000164d7ce,AWAITING REVIEW,2021-11-30 16:13:04.257000,2021-11-30 16:32:43.584000,1179.327,43,1348,13,99,,6612B13E,United Kingdom,United Kingdom,Full-Time,English,"English, French, German",United Kingdom,Male,No
61a64d98819ea4234780e0db,55a43687fdf99b7da1908e0f,AWAITING REVIEW,2021-11-30 16:13:12.385000,2021-11-30 16:31:45.549000,1113.164,33,1298,3,100,,6612B13E,United States,United States,DATA EXPIRED,English,English,United States,Female,DATA EXPIRED
61a64d9ed07a8701789bdb9d,60264f219516732a1dc72394,AWAITING REVIEW,2021-11-30 16:13:18.340000,2021-11-30 16:29:18.980000,960.64,53,196,0,100,,6612B13E,Singapore,United Kingdom,Part-Time,English,English,United Kingdom,Male,No
61a64da16feda671dd71a13d,61104a8a115d7706aafa0172,AWAITING REVIEW,2021-11-30 16:13:21.729000,2021-11-30 16:29:55.855000,994.126,20,100,0,100,,6612B13E,Germany,Germany,Other,German,"English, German",Germany,Male,Yes
61a64da50d2bff9b31063381,5eb0453f0852800c239c6afd,AWAITING REVIEW,2021-11-30 16:14:04.369000,2021-11-30 16:40:06.864000,1562.495,24,328,0,100,,6612B13E,Canada,Canada,Other,English,English,Canada,Female,Yes
61a64dab39fa47c20b9b8c8a,56fa002e8425ef000b3a4276,RETURNED,2021-11-30 16:13:35.395000,,74577.964269,33,2025,21,98,,,CONSENT REVOKED,CONSENT REVOKED,CONSENT REVOKED,CONSENT REVOKED,CONSENT REVOKED,CONSENT REVOKED,CONSENT REVOKED,CONSENT REVOKED
61a64dae8ded544782f70fc0,5e3606315bfa435ce4d6246c,AWAITING REVIEW,2021-11-30 16:13:37.195000,2021-11-30 16:29:24.183000,946.988,41,1203,2,100,,6612B13E,United States,United States,Part-Time,English,English,United States,Female,No
61a64db2da892a2dbe8d12c4,614cbf922a185b9d11bd6648,AWAITING REVIEW,2021-11-30 16:14:15.707000,2021-11-30 16:37:04.997000,1369.29,21,151,2,100,,6612B13E,Mexico,Mexico,Part-Time,Spanish,"English, Spanish",United States,Male,Yes
61a64db445e126d6323a44bd,59d4d716e59146000112e548,AWAITING REVIEW,2021-11-30 16:13:56.598000,2021-11-30 16:34:18.590000,1221.992,30,101,0,100,,6612B13E,France,United Kingdom,Full-Time,English,"French, English",France,Female,No
61a64db491c88051cd482849,5b15d20c444cef0001cb1153,AWAITING REVIEW,2021-11-30 16:13:51.060000,2021-11-30 16:34:46.993000,1255.933,36,1671,6,100,,6612B13E,United States,United States,DATA EXPIRED,English,English,United States,Male,DATA EXPIRED
61a64dba6f24821b29faa459,6113b932db68b2c6bb171d02,AWAITING REVIEW,2021-11-30 16:13:52.489000,2021-11-30 16:34:35.808000,1243.319,19,76,0,100,,6612B13E,Germany,Germany,Part-Time,German,"English, German",Germany,Female,Yes
61a64dc92e515f514fda87cd,613b5c34473f29dbd4566e4a,AWAITING REVIEW,2021-11-30 16:14:42.925000,2021-11-30 16:36:23.533000,1300.608,31,258,0,100,,6612B13E,United States,United States,DATA EXPIRED,English,English,United States,Female,Yes
61a64dcc0493f7873937186d,6112bf5bd0c80ee5f2d67bbe,AWAITING REVIEW,2021-11-30 16:14:07.052000,2021-11-30 16:30:12.344000,965.292,27,218,0,100,,6612B13E,United States,United States,"Not in paid work (e.g. homemaker', 'retired or disabled)",English,English,United States,Female,No
61a64dd4e52983e249e886c0,5f860adba36f4012cb5043c0,AWAITING REVIEW,2021-11-30 16:17:37.069000,2021-11-30 16:56:03.270000,2306.201,21,373,2,100,,ISSUE,United States,Portugal,Full-Time,English,"English, Portuguese, Spanish",United States,Female,DATA EXPIRED
61a64dd504f326f4fbcb132a,60fcb8369436b5ad5ae981e5,RETURNED,2021-11-30 16:22:51.694000,,74021.833058,27,75,0,100,,,CONSENT REVOKED,CONSENT REVOKED,CONSENT REVOKED,CONSENT REVOKED,CONSENT REVOKED,CONSENT REVOKED,CONSENT REVOKED,CONSENT REVOKED
61a64dd661b23a2028ed1916,5fda8fb68676a773fb103a75,AWAITING REVIEW,2021-11-30 16:15:58.643000,2021-11-30 16:36:29.479000,1230.836,23,681,0,100,,6612B13E,United States,United States,"Not in paid work (e.g. homemaker', 'retired or disabled)",English,English,United States,Male,No
61a64ddd95e5d2da7d5a9f19,5e8fe87009881f2ee83521fb,AWAITING REVIEW,2021-11-30 16:14:24.856000,2021-11-30 16:33:22.324000,1137.468,21,77,0,100,,6612B13E,United States,United States,Unemployed (and job seeking),English,English,United States,Male,Yes
61a64dddfcffafe053121bed,5fd66ce8aec66457ff73d743,RETURNED,2021-11-30 16:14:30.032000,,74523.551449,55,334,0,100,,,CONSENT REVOKED,CONSENT REVOKED,CONSENT REVOKED,CONSENT REVOKED,CONSENT REVOKED,CONSENT REVOKED,CONSENT REVOKED,CONSENT REVOKED
61a64de1257286560bb831f4,60b51c99ade9ff3585dff9e7,AWAITING REVIEW,2021-11-30 16:14:25.533000,2021-11-30 16:38:11.312000,1425.779,35,202,3,98,,6612B13E,United States,Germany,Full-Time,English,English,United States,Female,Yes
61a64de319c3191750dfa341,5d966cada040790015da4922,AWAITING REVIEW,2021-11-30 16:19:34.251000,2021-11-30 16:44:17.188000,1482.937,21,26,0,100,,6612B13E,Poland,Poland,Other,Polish,"Polish, English",Poland,Female,Yes
61a64de386ede8d938a9f73f,5fb93955fec8e17451e22dce,AWAITING REVIEW,2021-11-30 16:14:31.582000,2021-11-30 16:36:29.719000,1318.137,23,309,0,100,,6612B13E,Greece,Greece,Part-Time,Greek,"Czech, English, German, Greek, Italian, Russian, Spanish",United States,Male,Yes
61a64de46aac17f6f51c4c6e,616f337c287cb7972c92cacb,AWAITING REVIEW,2021-11-30 16:14:30.411000,2021-11-30 16:32:04.709000,1054.298,30,67,1,100,,6612B13E,United Kingdom,United Kingdom,Full-Time,English,English,United Kingdom,Female,No
61a64deb4d6975650a614e72,60b8cdf27f4022c3f2a8512e,AWAITING REVIEW,2021-11-30 16:14:35.529000,2021-11-30 16:37:46.544000,1391.015,21,240,0,100,,6612B13E,United States,Hungary,Full-Time,English,"English, Hungarian",United States,Female,No
61a64deffb0d8b8b6b9cbc0b,5f03c1692c19675f7c43d24d,AWAITING REVIEW,2021-11-30 16:14:48.637000,2021-11-30 16:34:31.884000,1183.247,33,404,2,100,,6612B13E,Nepal,United States,Full-Time,Nepali,"English, Hindi, Nepali",Nepal,Male,Yes
61a64df28ddd08f2e520a844,5dd3e46be4f4a03b9c5c53a9,AWAITING REVIEW,2021-11-30 16:14:44.218000,2021-11-30 16:40:41.255000,1557.037,22,310,2,100,,6612B13E,United States,Greece,Unemployed (and job seeking),Greek,"English, Greek",United States,Male,Yes
61a64df548b9c2a9a1ddfb04,5dfcfabe2b12bd9d55590694,AWAITING REVIEW,2021-11-30 16:14:46.622000,2021-11-30 16:27:36.779000,770.157,28,637,2,100,,6612B13E,United States,United States,Full-Time,English,English,United States,Female,No
61a64df638401fa9ffa1913a,60ddf017992f20e34420dd08,RETURNED,2021-11-30 16:14:50.089000,,74503.667603,28,347,4,98,,,CONSENT REVOKED,CONSENT REVOKED,CONSENT REVOKED,CONSENT REVOKED,CONSENT REVOKED,CONSENT REVOKED,CONSENT REVOKED,CONSENT REVOKED
61a64df94898a95f881fae7d,5f2016b023978b04f9679bec,AWAITING REVIEW,2021-11-30 16:15:01.874000,2021-11-30 16:36:57.560000,1315.686,24,363,2,100,,6612B13E,United States,United States,Part-Time,English,English,United States,Male,No
61a64e0210af4fe763549282,5dc9a8c72e81ea87179e0f55,AWAITING REVIEW,2021-11-30 16:14:58.053000,2021-11-30 16:31:12.456000,974.403,36,606,0,100,,6612B13E,United States,Mexico,"Not in paid work (e.g. homemaker', 'retired or disabled)",DATA EXPIRED,English,United States,Female,No
61a64e05e4a697a0a3fc90b6,600628028f2211980fd1632c,AWAITING REVIEW,2021-11-30 16:15:01.924000,2021-11-30 16:35:32.948000,1231.024,28,443,3,100,,6612B13E,United States,United States,DATA EXPIRED,English,English,United States,Male,DATA EXPIRED
61a64e1285b958869cc0e4f4,5eaeb9cf6528b158dd4a4760,RETURNED,2021-11-30 16:15:14.325000,,74479.498583,23,187,3,99,,,CONSENT REVOKED,CONSENT REVOKED,CONSENT REVOKED,CONSENT REVOKED,CONSENT REVOKED,CONSENT REVOKED,CONSENT REVOKED,CONSENT REVOKED
61a64e167744e1d6dc352727,56780a5a89319e0011644cb4,AWAITING REVIEW,2021-11-30 16:15:20.416000,2021-11-30 16:32:17.288000,1016.872,45,136,0,100,,6612B13E,United States,United States,Full-Time,English,English,United States,Female,No
61a64e1bd07a8701789bdba9,5d9d2e421af9ed0011c31894,AWAITING REVIEW,2021-11-30 16:15:28.151000,2021-11-30 16:41:03.044000,1534.893,48,1376,5,100,,6612B13E,United States,United States,Full-Time,English,English,United States,Female,No
61a64e1fadcac813af6d68d3,615058d4e17da255d5c4457e,RETURNED,2021-11-30 16:15:27.009000,,74466.868854,20,26,0,100,,,CONSENT REVOKED,CONSENT REVOKED,CONSENT REVOKED,CONSENT REVOKED,CONSENT REVOKED,CONSENT REVOKED,CONSENT REVOKED,CONSENT REVOKED
61a64e1fd4a58722d2aed730,5e09ffd8fa3d102a583771c1,RETURNED,2021-11-30 16:15:29.505000,,74464.390552,33,1297,1,100,,,CONSENT REVOKED,CONSENT REVOKED,CONSENT REVOKED,CONSENT REVOKED,CONSENT REVOKED,CONSENT REVOKED,CONSENT REVOKED,CONSENT REVOKED
61a64e2106fb2e6109efda1b,60e2577f8c52db9d1fb5ffac,AWAITING REVIEW,2021-11-30 16:15:37.665000,2021-11-30 16:35:29.134000,1191.469,47,215,0,100,,6612B13E,United States,United States,Full-Time,English,"English, French",United States,Female,DATA EXPIRED
61a64e234bbe1f2f73a65ffd,60e43883a07c34133084fec3,TIMED-OUT,2021-11-30 16:15:31.744000,,74462.18572,33,126,2,98,,,Germany,Germany,Full-Time,German,"English, German, Arabic, Japanese",Germany,Male,Yes
61a64e241cdeb161c043e0a8,5d3067ad3c028b001782ab68,AWAITING REVIEW,2021-11-30 16:15:32.159000,2021-11-30 16:52:04.082000,2191.923,28,359,0,100,,6612B13E,Poland,Poland,Other,Polish,"Polish, English, Farsi",Poland,Male,Yes
61a64e245b811be9197da9e1,5e3411400082f13d625e7880,RETURNED,2021-11-30 16:15:32.060000,,74461.905666,35,594,2,100,,,CONSENT REVOKED,CONSENT REVOKED,CONSENT REVOKED,CONSENT REVOKED,CONSENT REVOKED,CONSENT REVOKED,CONSENT REVOKED,CONSENT REVOKED
61a64e25529b2f5491c8b5ed,5e85da5281f7de1dc6d86250,AWAITING REVIEW,2021-11-30 16:15:33.596000,2021-11-30 17:12:04.459000,3390.863,20,168,3,99,,6612B13E,Portugal,Portugal,Other,Portuguese,"Portuguese, English",Portugal,Male,Yes
61a64e26a6bcce5ff1c9ae72,60fdb9bad55eb8c5b67f18f4,AWAITING REVIEW,2021-11-30 16:16:10.099000,2021-11-30 16:34:05.229000,1075.13,28,63,0,100,,6612B13E,Netherlands,Netherlands,Part-Time,Dutch,"Dutch, English",Netherlands,Female,No
61a64e274fee57fdb027ff20,60961c5b63ea509a6cc2a1dc,RETURNED,2021-11-30 16:15:35.445000,,74458.574326,23,41,0,100,,,CONSENT REVOKED,CONSENT REVOKED,CONSENT REVOKED,CONSENT REVOKED,CONSENT REVOKED,CONSENT REVOKED,CONSENT REVOKED,CONSENT REVOKED
61a64e27abe4a796884f133a,6160a06357f67273c6d1f001,AWAITING REVIEW,2021-11-30 16:16:17.128000,2021-11-30 16:41:55.679000,1538.551,26,30,0,100,,6612B13E,Mexico,Mexico,Unemployed (and job seeking),Spanish,"English, French, Spanish",Mexico,Female,No
61a64e27f5e5f968baa03851,5cbe04b4f429ff00159de30e,AWAITING REVIEW,2021-11-30 16:15:35.210000,2021-11-30 16:43:41.004000,1685.794,36,1763,7,100,,6612B13E,Zimbabwe,United States,DATA EXPIRED,English,English,United States,Female,DATA EXPIRED
61a64e286b5dfbcec940152f,6168983cf2f14b393f06c50a,RETURNED,2021-11-30 16:15:40.177000,,74453.895675,29,73,0,100,,,CONSENT REVOKED,CONSENT REVOKED,CONSENT REVOKED,CONSENT REVOKED,CONSENT REVOKED,CONSENT REVOKED,CONSENT REVOKED,CONSENT REVOKED
61a64e28fa141d99bbeb0bdd,5f01b7e94738d231487f2911,AWAITING REVIEW,2021-11-30 16:15:36.783000,2021-11-30 16:43:25.146000,1668.363,31,217,0,100,,6612B13E,Czech Republic,Czech Republic,Full-Time,Czech,"Czech, Slovak, English",Czech Republic,Male,No
61a64e2a3e7592d61c513aaf,6007b3460f44502d539d2250,AWAITING REVIEW,2021-11-30 16:15:44.167000,2021-11-30 16:37:35.712000,1311.545,23,55,0,100,,6612B13E,Portugal,Portugal,Other,Portuguese,"Portuguese, English",Portugal,Female,Yes
61a64e2ac295503ccb429ab6,5c465bc735e0cd0001dddc5b,AWAITING REVIEW,2021-11-30 16:15:38.373000,2021-11-30 16:49:50.937000,2052.564,28,369,8,97,,NOCODE,Netherlands,Netherlands,DATA EXPIRED,Dutch,"Spanish, English, Chinese, Dutch, Japanese",Netherlands,Male,DATA EXPIRED
61a64e2b0152ef27183708e3,604bf186131082963e7648ee,AWAITING REVIEW,2021-11-30 16:15:39.793000,2021-11-30 16:34:39.956000,1140.163,22,69,0,100,,6612B13E,Spain,Spain,"Not in paid work (e.g. homemaker', 'retired or disabled)",Spanish,"Spanish, English",Spain,Male,Yes
61a64e2b0832042ee52a7cb3,5a0b8d4c7ecfc50001be130d,TIMED-OUT,2021-11-30 16:15:41.115000,,74453.060576,30,1017,6,99,,,United States,United States,Part-Time,English,English,United States,Female,No
61a64e2b10af4fe763549286,5f1c66f13d69c002fa1fe42f,AWAITING REVIEW,2021-11-30 16:15:39.891000,2021-11-30 16:35:18.054000,1178.163,24,185,5,97,,6612B13E,Poland,Poland,Unemployed (and job seeking),Polish,"English, Polish, Czech, German",Poland,Male,Yes
61a64e2b1ed94a1a912fc740,61687ebcd2a35ffb762d1928,AWAITING REVIEW,2021-11-30 16:16:58.124000,2021-11-30 16:52:36.153000,2138.029,28,28,0,100,,6612B13E,South Africa,South Africa,Full-Time,DATA EXPIRED,English,South Africa,Female,Yes
61a64e2b5942e3c7ab4a55f1,611df18215873004f2840f39,AWAITING REVIEW,2021-11-30 16:15:52.468000,2021-11-30 16:43:25.527000,1653.059,33,32,0,100,,6612B13E,South Africa,South Africa,Full-Time,DATA EXPIRED,"English, Afrikaans",South Africa,Female,No
61a64e2bb87c8405e896b88c,60ca10a7cf189324ef74e883,RETURNED,2021-11-30 16:16:18.972000,,74415.276838,44,74,0,100,,,CONSENT REVOKED,CONSENT REVOKED,CONSENT REVOKED,CONSENT REVOKED,CONSENT REVOKED,CONSENT REVOKED,CONSENT REVOKED,CONSENT REVOKED
61a64e2be52983e249e886c5,61096b18dc10f2a5fb0db48b,RETURNED,2021-11-30 16:25:38.995000,,73855.272596,42,309,0,100,,,CONSENT REVOKED,CONSENT REVOKED,CONSENT REVOKED,CONSENT REVOKED,CONSENT REVOKED,CONSENT REVOKED,CONSENT REVOKED,CONSENT REVOKED
61a64e2c14743daae5748d88,615c2d679e56593028073d37,AWAITING REVIEW,2021-11-30 16:17:59.355000,2021-11-30 16:42:37.336000,1477.981,,23,2,97,,6612B13E,DATA EXPIRED,DATA EXPIRED,DATA EXPIRED,DATA EXPIRED,"French, Italian, English",France,DATA EXPIRED,DATA EXPIRED
61a64e2c1a6c1decac1f9c1f,6150b927614a4f154f311f9d,AWAITING REVIEW,2021-11-30 16:15:40.083000,2021-11-30 16:34:34.577000,1134.494,31,183,1,100,,6612B13E,United States,United States,Unemployed (and job seeking),English,English,United States,Female,No
61a64e2ca9acc00ebbf42487,614ab9a1c3eb9f981b40c893,AWAITING REVIEW,2021-11-30 16:16:15.572000,2021-11-30 16:37:20.550000,1264.978,26,44,0,100,,6612B13E,Mexico,Mexico,Part-Time,Spanish,"French, English, Spanish",Mexico,Male,No
61a64e2d6b7246553cc4f5ea,60fdcdfb86fc00e96a9adf9f,AWAITING REVIEW,2021-11-30 16:15:41.279000,2021-11-30 16:38:53.807000,1392.528,23,29,0,100,,6612B13E,Portugal,Portugal,Unemployed (and job seeking),Portuguese,"English, Portuguese",Portugal,Female,Yes
61a64e2d6c10ebebb1453335,613cb9a1ccf4ca3a5150522e,AWAITING REVIEW,2021-11-30 16:15:41.168000,2021-11-30 16:36:01.846000,1220.678,23,40,0,100,,6612B13E,Poland,Poland,Full-Time,Polish,"Polish, English",Poland,Male,Yes
61a64e2d8fca5f8fe43c3715,5ad59462045cb000015c9960,AWAITING REVIEW,2021-11-30 16:15:47.276000,2021-11-30 16:34:25.448000,1118.172,31,1034,4,100,,6612B13E,United Kingdom,United Kingdom,Full-Time,English,English,United Kingdom,Female,No
61a64e2de7bbbba1e2a3c127,5f8c9d876245d7429d7f86b1,AWAITING REVIEW,2021-11-30 16:15:41.879000,2021-11-30 16:45:15.539000,1773.66,21,119,2,98,,6612B13E,Poland,Poland,Other,Polish,"English, Polish",Poland,Female,Yes
61a64e2e2eea43dae4c8742e,616f9519fb3906da76b8e173,AWAITING REVIEW,2021-11-30 16:15:45.978000,2021-11-30 16:38:51.354000,1385.376,21,29,0,100,,6612B13E,Chile,Chile,Other,Spanish,"English, Spanish",Chile,Male,Yes
61a64e2e6c10ebebb1453337,5589be79fdf99b18be320155,AWAITING REVIEW,2021-11-30 16:15:53.378000,2021-11-30 16:34:03.256000,1089.878,35,1503,4,100,,6612B13E,United States,United States,Full-Time,English,English,United States,Male,DATA EXPIRED
61a64e2e888d3cb095472a7f,6086b9cc58c7269cc737c68e,AWAITING REVIEW,2021-11-30 16:15:42.638000,2021-11-30 16:39:11.196000,1408.558,19,41,1,100,,6612B13E,Poland,Poland,Other,Polish,"English, Polish",Poland,Female,Yes
61a64e2e9c908b25c44a0371,6106c8ad588fa9a7e605acc8,AWAITING REVIEW,2021-11-30 16:15:59.126000,2021-11-30 16:37:49.367000,1310.241,21,26,0,100,,6612B13E,South Africa,South Africa,Other,DATA EXPIRED,English,South Africa,Female,Yes
61a64e2ed5a19e22250e05e5,5e824780c6794996b5c8edbd,AWAITING REVIEW,2021-11-30 16:15:42.120000,2021-11-30 16:30:40.363000,898.243,25,152,0,100,,6612B13E,Italy,Italy,DATA EXPIRED,Italian,"English, Italian, Spanish, Chinese",Italy,Male,Yes
61a64e2ef8c8612f9770f9ef,5d9c67b131544d00101daef1,RETURNED,2021-11-30 16:15:49.331000,,74445.207418,33,1472,2,100,,,CONSENT REVOKED,CONSENT REVOKED,CONSENT REVOKED,CONSENT REVOKED,CONSENT REVOKED,CONSENT REVOKED,CONSENT REVOKED,CONSENT REVOKED
61a64e2f573403b2b28f33f7,61719508d946490934305f3a,AWAITING REVIEW,2021-11-30 16:19:12.900000,2021-11-30 17:28:58.267000,4185.367,35,52,0,100,,NOCODE,United States,United Kingdom,Part-Time,English,English,United States,Male,No
61a64e2f97e6b95b47e4d221,5f9beec0d30f2a000847752f,AWAITING REVIEW,2021-11-30 16:15:43.850000,2021-11-30 16:35:05.721000,1161.871,22,132,1,100,,6612B13E,Italy,Italy,Part-Time,Italian,"English, Italian",Italy,Female,Yes
61a64e2fd6019d176c3aa3d3,5fc781689771f106330abf6a,AWAITING REVIEW,2021-11-30 16:15:43.489000,2021-11-30 16:43:16.080000,1652.591,21,61,1,100,,6612B13E,Slovenia,Slovenia,Other,Slovenian,"Slovenian, English",Slovenia,Female,Yes
61a64e30045811283fb4fec5,61117bdc5018a505855a3c2b,AWAITING REVIEW,2021-11-30 16:15:56.907000,2021-11-30 16:31:52.739000,955.832,24,71,0,100,,6612B13E,France,France,Full-Time,French,"English, French",France,Female,No
61a64e300493f78739371873,5dd72efa82569a6d38e06854,AWAITING REVIEW,2021-11-30 16:15:47.318000,2021-11-30 16:42:50.995000,1623.677,38,756,4,99,,6612B13E,United States,United States,DATA EXPIRED,English,English,United States,Female,DATA EXPIRED
61a64e306b5dfbcec9401530,5a89cc2c000dab00018cbd38,AWAITING REVIEW,2021-11-30 16:15:51.977000,2021-11-30 17:10:50.310000,3298.333,32,566,4,99,,6612B13E,United States,United States,Other,English,English,United States,Male,No
61a64e3106fb2e6109efda1d,5b92fef3754b700001f01947,AWAITING REVIEW,2021-11-30 16:15:45.830000,2021-11-30 16:35:43.409000,1197.579,56,142,0,100,,6612B13E,Germany,Germany,Part-Time,German,English,Germany,Female,No
61a64e31d648a8e59698665d,5dbc61a0df0b4820e71a0e99,RETURNED,2021-11-30 16:25:45.745000,,73848.967503,27,276,2,100,,,CONSENT REVOKED,CONSENT REVOKED,CONSENT REVOKED,CONSENT REVOKED,CONSENT REVOKED,CONSENT REVOKED,CONSENT REVOKED,CONSENT REVOKED
61a64e31dccab5af045dcae7,57051842de5095000a18ee63,AWAITING REVIEW,2021-11-30 16:15:45.540000,2021-11-30 16:31:42.265000,956.725,63,1549,9,100,,6612B13E,United Kingdom,United Kingdom,DATA EXPIRED,English,English,United Kingdom,Male,DATA EXPIRED
61a64e324d6975650a614e75,61059ae3e280dd20c9d838de,AWAITING REVIEW,2021-11-30 16:15:51.556000,2021-11-30 16:32:31.331000,999.775,31,136,2,100,,6612B13E,United Kingdom,United Kingdom,Full-Time,English,English,United Kingdom,Female,No
61a64e32e7ae13a2e0d6b9a8,5c8ee6c36ca70b0001fe979d,AWAITING REVIEW,2021-11-30 16:15:46.454000,2021-11-30 16:40:28.580000,1482.126,63,101,1,100,,6612B13E,Canada,Canada,Unemployed (and job seeking),English,English,Canada,Male,No
61a64e32f1781cdd423d3a60,5f7b46cae9a1ad0c43e4de70,RETURNED,2021-11-30 16:15:46.777000,,74448.023756,23,335,3,100,,,CONSENT REVOKED,CONSENT REVOKED,CONSENT REVOKED,CONSENT REVOKED,CONSENT REVOKED,CONSENT REVOKED,CONSENT REVOKED,CONSENT REVOKED
61a64e336fcc8dd12dbc766b,60cd23e56f70d455e4759026,AWAITING REVIEW,2021-11-30 16:15:47.450000,2021-11-30 16:39:29.546000,1422.096,32,90,0,100,,6612B13E,Portugal,Portugal,Full-Time,Portuguese,"Portuguese, English",Portugal,Female,No
61a64e33a4468d0fa143f89a,5c72c016a4414500012e1086,AWAITING REVIEW,2021-11-30 16:15:47.766000,2021-11-30 17:20:46.953000,3899.187,34,70,1,100,,6612B13E,DATA EXPIRED,Mexico,DATA EXPIRED,Spanish,"English, Spanish",DATA EXPIRED,Female,DATA EXPIRED
61a64e33a6bcce5ff1c9ae73,5ea1e37fc066eb0d36edb649,RETURNED,2021-11-30 16:15:51.890000,,74442.968078,66,363,2,100,,,CONSENT REVOKED,CONSENT REVOKED,CONSENT REVOKED,CONSENT REVOKED,CONSENT REVOKED,CONSENT REVOKED,CONSENT REVOKED,CONSENT REVOKED
61a64e33b3d0383f86f45df8,6145f4e9de4f87075aeecd95,RETURNED,2021-11-30 16:24:52.486000,,73902.389087,25,24,2,98,,,CONSENT REVOKED,CONSENT REVOKED,CONSENT REVOKED,CONSENT REVOKED,CONSENT REVOKED,CONSENT REVOKED,CONSENT REVOKED,CONSENT REVOKED
61a64e340d9766ec31741d39,6163f8a826c9b98b20139416,RETURNED,2021-11-30 16:25:48.797000,,73846.095485,54,113,1,100,,,CONSENT REVOKED,CONSENT REVOKED,CONSENT REVOKED,CONSENT REVOKED,CONSENT REVOKED,CONSENT REVOKED,CONSENT REVOKED,CONSENT REVOKED
61a64e3486ede8d938a9f747,610d97bf0ee9babdb89986ea,AWAITING REVIEW,2021-11-30 16:15:48.607000,2021-11-30 16:35:36.176000,1187.569,19,30,0,100,,6612B13E,Spain,Spain,Part-Time,Basque,"Basque, English, Spanish",Spain,Female,Yes
61a64e34996e596993a82b36,611154c1278503776878d3ae,RETURNED,2021-11-30 16:15:48.502000,,74446.425701,23,33,2,96,,,CONSENT REVOKED,CONSENT REVOKED,CONSENT REVOKED,CONSENT REVOKED,CONSENT REVOKED,CONSENT REVOKED,CONSENT REVOKED,CONSENT REVOKED
61a64e34d26652320bb562bb,5f66457793e8240d22e60ea3,AWAITING REVIEW,2021-11-30 16:15:48.008000,2021-11-30 16:38:53.881000,1385.873,26,131,0,100,,6612B13E,Mexico,Mexico,Part-Time,Spanish,"English, Spanish",Mexico,Male,Yes
61a64e34d9e361baeeb56595,60fc284f0e2617bf65c1261a,AWAITING REVIEW,2021-11-30 16:15:52.447000,2021-11-30 16:32:50.085000,1017.638,22,41,0,100,,6612B13E,South Africa,South Africa,"Not in paid work (e.g. homemaker', 'retired or disabled)",DATA EXPIRED,"Afrikaans, English",South Africa,Male,Yes
61a64e3572d2980826a0d717,61233bcbe3860b9432d6475d,RETURNED,2021-11-30 16:15:49.091000,,74445.888841,23,12,0,100,,,CONSENT REVOKED,CONSENT REVOKED,CONSENT REVOKED,CONSENT REVOKED,CONSENT REVOKED,CONSENT REVOKED,CONSENT REVOKED,CONSENT REVOKED
61a64e357a0eeaf402092ecf,60fda2629b41672689b1a9f1,RETURNED,2021-11-30 16:18:12.516000,,74302.484018,34,70,4,98,,,CONSENT REVOKED,CONSENT REVOKED,CONSENT REVOKED,CONSENT REVOKED,CONSENT REVOKED,CONSENT REVOKED,CONSENT REVOKED,CONSENT REVOKED
61a64e3594e41cacda050a98,5def63da5a81d3000c3f5ec9,AWAITING REVIEW,2021-11-30 16:15:49.300000,2021-11-30 16:36:59.478000,1270.178,30,98,0,100,,6612B13E,Greece,Greece,Unemployed (and job seeking),Greek,"English, Greek",Greece,Male,No
61a64e35efedcd4a36a06ec1,60c0ff24ec4694e5c05570a2,AWAITING REVIEW,2021-11-30 16:15:49.569000,2021-11-30 16:38:28.005000,1358.436,19,22,0,100,,6612B13E,Greece,Greece,Part-Time,Greek,"Greek, English",Greece,Male,Yes
61a64e360d2bff9b31063392,5cf8012a542f5400196a1493,AWAITING REVIEW,2021-11-30 16:15:57.844000,2021-11-30 16:36:45.070000,1247.226,58,253,3,99,,6612B13E,Portugal,Portugal,Unemployed (and job seeking),Portuguese,"Portuguese, English",Portugal,Female,No
61a64e36520cde4ce04918d2,613e7b7625623671947312c1,AWAITING REVIEW,2021-11-30 16:16:22.891000,2021-11-30 16:42:58.022000,1595.131,24,23,0,100,,6612B13E,Mexico,Mexico,Unemployed (and job seeking),Spanish,"Spanish, English",Mexico,Male,Yes
61a64e366002467192b17c4f,5e6645daaf3bd53bfad40b9f,AWAITING REVIEW,2021-11-30 16:15:50.209000,2021-11-30 16:37:02.108000,1271.899,66,451,5,98,,6612B13E,United Kingdom,United Kingdom,Part-Time,English,English,United Kingdom,Female,No
61a64e36a9acc00ebbf4248b,5ec31cab8be41217405324fc,AWAITING REVIEW,2021-11-30 16:15:50.956000,2021-11-30 16:37:43.249000,1312.293,28,223,0,100,,6612B13E,Poland,Poland,Part-Time,Polish,"Polish, English",Poland,Female,No
61a64e36bbac7a138c3b1908,5e92f37a81efdf000c813062,AWAITING REVIEW,2021-11-30 16:16:32.292000,2021-11-30 16:36:30.210000,1197.918,41,132,1,100,,6612B13E,United Kingdom,United Kingdom,Full-Time,English,English,United Kingdom,Male,No
61a64e36c4e9f8ea95ff8419,611bac33b05155b4845a6f41,AWAITING REVIEW,2021-11-30 16:15:53.199000,2021-11-30 16:48:02.827000,1929.628,43,126,3,96,,6612B13E,Canada,United Kingdom,Part-Time,English,"English, Hindi",United Kingdom,Female,No
61a64e370152ef27183708e4,614a634fbf14504a7606183f,AWAITING REVIEW,2021-11-30 16:15:51.766000,2021-11-30 16:48:45.810000,1974.044,26,24,0,100,,6612B13E,Chile,Chile,Unemployed (and job seeking),Spanish,"English, Spanish",Chile,Male,No
61a64e372a0e3ae514eeccf4,615c52cd7405beacc21518af,AWAITING REVIEW,2021-11-30 16:15:51.863000,2021-11-30 16:28:53.658000,781.795,20,57,0,100,,6612B13E,Netherlands,Netherlands,Full-Time,Dutch,"Dutch, English",Netherlands,Male,Yes
61a64e374f112264fc8a7898,613d1cd63c176810ab0b710f,AWAITING REVIEW,2021-11-30 16:16:47.349000,2021-11-30 16:44:18.303000,1650.954,32,32,1,100,,6612B13E,South Africa,South Africa,Part-Time,DATA EXPIRED,English,South Africa,Female,No
61a64e37caa519fbe587db3f,5efbbac9041ae7163c083d36,AWAITING REVIEW,2021-11-30 16:16:00.471000,2021-11-30 16:31:14.897000,914.426,22,783,7,99,,6612B13E,United States,United Kingdom,Full-Time,English,English,United States,Male,Yes
61a64e3910b6cc53efcbe4fd,615ad5bea894bde31da0413e,TIMED-OUT,2021-11-30 16:15:53.877000,,74441.360835,21,27,1,99,,,Morocco,Poland,Unemployed (and job seeking),Arabic,"Arabic, English",Morocco,Male,Yes
61a64e39a4468d0fa143f89b,60fb1c894baba642bf310837,AWAITING REVIEW,2021-11-30 16:15:53.798000,2021-11-30 17:12:35.375000,3401.577,32,59,3,97,,6612B13E,Canada,Canada,Unemployed (and job seeking),English,"English, French",Canada,Male,No
61a64e3a28a944db6a206a91,600a9ab59e9b701db49fbec1,AWAITING REVIEW,2021-11-30 16:15:56.785000,2021-11-30 16:34:53.550000,1136.765,24,44,0,100,,6612B13E,Portugal,Portugal,Full-Time,Portuguese,"English, Portuguese",Portugal,Male,DATA EXPIRED
61a64e3a2b72778101c9618c,60042af01e4c4b52c5ee0c01,AWAITING REVIEW,2021-11-30 16:15:57.137000,2021-11-30 16:36:56.854000,1259.717,19,107,1,100,,6612B13E,Italy,Italy,Unemployed (and job seeking),Italian,"English, Italian, Spanish, French",Italy,Female,Yes
61a64e3a832cefa252155048,6086bce92a8e1c219a9120c5,AWAITING REVIEW,2021-11-30 16:15:58.978000,2021-11-30 16:33:21.052000,1042.074,25,61,2,99,,6612B13E,Portugal,Portugal,Full-Time,Portuguese,"Portuguese, English",Portugal,Male,No
61a64e3a8752ff655f302efd,60cf5498a6ed9c3a60f8f62f,AWAITING REVIEW,2021-11-30 16:15:53.997000,2021-11-30 16:51:45.635000,2151.638,20,41,1,100,,6612B13E,Portugal,Portugal,Other,Portuguese,"Portuguese, Spanish, English",Portugal,Male,Yes
61a64e3ab9b6de5e72694219,610425ba05c54caf4936bda4,RETURNED,2021-11-30 16:16:07.019000,,74428.349126,34,122,2,99,,,CONSENT REVOKED,CONSENT REVOKED,CONSENT REVOKED,CONSENT REVOKED,CONSENT REVOKED,CONSENT REVOKED,CONSENT REVOKED,CONSENT REVOKED
61a64e3af03f59dbb1923552,60e03b0a759b4850df25f739,AWAITING REVIEW,2021-11-30 16:16:06.396000,2021-11-30 16:32:34.427000,988.031,18,45,0,100,,6612B13E,Greece,Greece,Part-Time,Greek,"Greek, English",Greece,Male,Yes
61a64e3b85b958869cc0e4f5,5c5baaec192d350001d5c8e4,AWAITING REVIEW,2021-11-30 16:15:55.824000,2021-11-30 16:30:59.914000,904.09,21,321,1,100,,6612B13E,Portugal,Portugal,Unemployed (and job seeking),Portuguese,"English, Portuguese",Portugal,Male,No
61a64e3badcac813af6d68d6,5f11a8920a200d04be2d952e,AWAITING REVIEW,2021-11-30 16:15:55.323000,2021-11-30 16:32:06.975000,971.652,26,263,0,100,,6612B13E,Croatia,United Kingdom,DATA EXPIRED,English,"Croatian, English, Serbian",Croatia,Female,DATA EXPIRED
61a64e3c197884ae9c0988a2,5f10d13957b4763f401690e5,AWAITING REVIEW,2021-11-30 16:17:04.466000,2021-11-30 16:46:37.170000,1772.704,38,57,1,99,,6612B13E,Zimbabwe,South Africa,Full-Time,DATA EXPIRED,English,Zimbabwe,Female,No
61a64e3c5d7a75a6168f21db,60d81ecb2ca79922dbdf2575,AWAITING REVIEW,2021-11-30 16:15:56.278000,2021-11-30 17:17:26.268000,3689.99,34,25,0,100,,6612B13E,Zimbabwe,South Africa,Unemployed (and job seeking),DATA EXPIRED,English,Zimbabwe,Female,No
61a64e3c7234570b83ecc2c1,5daca079bf590700167f704d,AWAITING REVIEW,2021-11-30 16:15:56.948000,2021-11-30 17:08:00.938000,3123.99,20,226,4,99,,NOCODE,Poland,Poland,Unemployed (and job seeking),DATA EXPIRED,"Polish, Spanish, Japanese, English, Russian, French",Poland,Male,Yes
61a64e3c82b833369e5737a6,616891e25a026e1f7262116c,AWAITING REVIEW,2021-11-30 16:15:56.693000,2021-11-30 16:29:37.111000,820.418,21,29,0,100,,6612B13E,Portugal,Portugal,Unemployed (and job seeking),Portuguese,"English, Portuguese, Spanish",Portugal,Female,Yes
61a64e3cf2d478b43c43a306,60e792f25e9ab875f9605cf5,AWAITING REVIEW,2021-11-30 16:16:05.143000,2021-11-30 16:32:56.293000,1011.15,37,254,1,100,,6612B13E,United States,United States,"Not in paid work (e.g. homemaker', 'retired or disabled)",English,English,United States,Female,No
61a64e3d1cdeb161c043e0ab,58742bf5d53c97000159df8c,AWAITING REVIEW,2021-11-30 16:15:57.369000,2021-11-30 16:41:45.070000,1547.701,32,2117,2,100,,6612B13E,United States,United States,Part-Time,English,English,United States,Female,No
61a64e3d1d171cd0ee3cceaa,613a497692c1db07e2fc599f,AWAITING REVIEW,2021-11-30 16:15:57.695000,2021-11-30 16:38:55.213000,1377.518,20,31,0,100,,6612B13E,Mexico,Mexico,Unemployed (and job seeking),Spanish,"English, Spanish",Mexico,Male,Yes
61a64e3d2a0e3ae514eeccf5,612e309706778a2e8d27df01,AWAITING REVIEW,2021-11-30 16:17:14.001000,2021-11-30 16:33:01.222000,947.221,33,134,3,99,,6612B13E,United Kingdom,United Kingdom,Full-Time,English,English,United Kingdom,Female,No
61a64e3d819a7cd8a402a4ba,60a669665b004f7f4fcda3df,RETURNED,2021-11-30 16:25:57.553000,,73838.052163,36,55,0,100,,,CONSENT REVOKED,CONSENT REVOKED,CONSENT REVOKED,CONSENT REVOKED,CONSENT REVOKED,CONSENT REVOKED,CONSENT REVOKED,CONSENT REVOKED
61a64e3db3d0383f86f45dfd,59a6aa43b2130b000179d303,AWAITING REVIEW,2021-11-30 16:16:01.300000,2021-11-30 16:31:44.676000,943.376,43,603,2,100,,6612B13E,United Kingdom,United Kingdom,Part-Time,English,English,United Kingdom,Female,No
61a64e3dfc0e9bcd4a48d0cd,60381c56a3d28f19c7093147,AWAITING REVIEW,2021-11-30 16:15:57.630000,2021-11-30 17:13:27.675000,3450.045,86,154,0,100,,6612B13E,United Kingdom,United Kingdom,"Not in paid work (e.g. homemaker', 'retired or disabled)",English,English,United Kingdom,Female,No
61a64e3e168f1dcc05dba042,5eb04e79e03a4c0e066042c6,RETURNED,2021-11-30 16:15:58.239000,,74437.417745,36,202,3,98,,,CONSENT REVOKED,CONSENT REVOKED,CONSENT REVOKED,CONSENT REVOKED,CONSENT REVOKED,CONSENT REVOKED,CONSENT REVOKED,CONSENT REVOKED
61a64e3e8f55bed99228f75d,60c1da4f43673b0d9446078e,AWAITING REVIEW,2021-11-30 16:15:58.659000,2021-11-30 16:49:01.671000,1983.012,21,33,2,98,,6612B13E,Poland,Poland,Full-Time,Polish,"English, Polish",Poland,Female,Yes
61a64e3ece87585a76c10860,60207652caa62b6a34ff96dc,AWAITING REVIEW,2021-11-30 16:18:50.957000,2021-11-30 16:34:57.968000,967.011,22,277,1,100,,6612B13E,Germany,Germany,"Not in paid work (e.g. homemaker', 'retired or disabled)",German,"German, English",Germany,Male,Yes
61a64e3ede719677d1c56499,5baa7acf14779d0001a23968,AWAITING REVIEW,2021-11-30 16:15:58.927000,2021-11-30 16:33:14.900000,1035.973,29,455,1,100,,6612B13E,United Kingdom,United Kingdom,DATA EXPIRED,English,English,United Kingdom,Female,DATA EXPIRED
61a64e3f0b4c699032f65298,60c517bf4ee2c1ea6c7d2c0e,RETURNED,2021-11-30 16:16:19.967000,,74415.781337,21,43,0,100,,,CONSENT REVOKED,CONSENT REVOKED,CONSENT REVOKED,CONSENT REVOKED,CONSENT REVOKED,CONSENT REVOKED,CONSENT REVOKED,CONSENT REVOKED
61a64e3f61b23a2028ed1923,6108085f9f95604979e43148,AWAITING REVIEW,2021-11-30 16:17:25.294000,2021-11-30 16:33:01.572000,936.278,21,7,0,100,,6612B13E,United Kingdom,United Kingdom,Other,English,English,United Kingdom,Female,Yes
61a64e3f66d48c6e868b5a0b,6176966806de000024ed0ddf,AWAITING REVIEW,2021-11-30 16:16:05.004000,2021-11-30 16:30:05.918000,840.914,25,44,0,100,,6612B13E,Poland,Poland,Part-Time,Polish,"English, French, Italian, Polish, Spanish",Poland,Female,No
61a64e3ff32a65395cd80027,60f82116bbc8a73a12967ffb,AWAITING REVIEW,2021-11-30 16:16:28.971000,2021-11-30 16:38:02.816000,1293.845,24,20,0,100,,6612B13E,Switzerland,Portugal,Other,Portuguese,"English, Portuguese",Portugal,Male,Yes
61a64e40105ae53b226215bc,6167f106d8d301bd6433c8b1,AWAITING REVIEW,2021-11-30 16:16:00.812000,2021-11-30 16:41:39.803000,1538.991,45,49,0,100,,6612B13E,Spain,Spain,Full-Time,Spanish,"Catalan, English, Spanish",Spain,Male,No
61a64e4021f7c04a315e4872,601c716f53aa437ab26ec04b,AWAITING REVIEW,2021-11-30 16:16:00.651000,2021-11-30 16:46:53.692000,1853.041,22,84,0,100,,6612B13E,Chile,Chile,Full-Time,Spanish,"English, Italian, Spanish",Italy,Male,Yes
61a64e403690c8c2e10d9f27,60feb6998932a9c1f1e8bf23,RETURNED,2021-11-30 16:16:08.425000,,74427.729944,33,218,0,100,,,CONSENT REVOKED,CONSENT REVOKED,CONSENT REVOKED,CONSENT REVOKED,CONSENT REVOKED,CONSENT REVOKED,CONSENT REVOKED,CONSENT REVOKED
61a64e408d1899a281d7b45c,5e4a932344498f4e361fee0d,AWAITING REVIEW,2021-11-30 16:16:00.925000,2021-11-30 16:34:38.048000,1117.123,23,218,0,100,,6612B13E,Portugal,Portugal,Other,Portuguese,"English, Portuguese",Portugal,Male,Yes
61a64e41520cde4ce04918d3,6135ce2a32b53777552a46b0,AWAITING REVIEW,2021-11-30 16:16:01.883000,2021-11-30 16:37:44.615000,1302.732,18,29,0,100,,6612B13E,South Africa,South Africa,Full-Time,DATA EXPIRED,"English, Afrikaans",South Africa,Male,No
61a64e418bcfdcad11c6c0ad,610032aa2ae56976d71d296d,AWAITING REVIEW,2021-11-30 16:16:10.205000,2021-11-30 16:46:45.432000,1835.227,20,32,1,97,,6612B13E,Hungary,Hungary,Other,Hungarian,"Hungarian, German, English",Hungary,Female,Yes
61a64e42b2cebc276ef67b6c,60e1e24c2cefa1327bb77476,RETURNED,2021-11-30 16:16:02.765000,,74433.472035,21,32,0,100,,,CONSENT REVOKED,CONSENT REVOKED,CONSENT REVOKED,CONSENT REVOKED,CONSENT REVOKED,CONSENT REVOKED,CONSENT REVOKED,CONSENT REVOKED
61a64e42f8c8612f9770f9f3,5c9bb365008a6100015f9c1c,AWAITING REVIEW,2021-11-30 16:16:02.006000,2021-11-30 16:32:30.511000,988.505,36,253,1,100,,6612B13E,Italy,Italy,DATA EXPIRED,Italian,"English, Italian",Italy,Female,No
61a64e431fade452dfb914ee,5ed772653b309d023ca48655,AWAITING REVIEW,2021-11-30 16:16:03.063000,2021-11-30 16:51:52.434000,2149.371,22,166,0,100,,6612B13E,South Africa,South Africa,Unemployed (and job seeking),DATA EXPIRED,"Afrikaans, English",South Africa,Male,Yes
61a64e433447a9ea9b3b7af0,5f50732850c7c600098593df,AWAITING REVIEW,2021-11-30 16:16:03.370000,2021-11-30 16:40:40.805000,1477.435,22,900,3,100,,6612B13E,United States,United States,DATA EXPIRED,English,English,United States,Male,DATA EXPIRED
61a64e43930de0ad88e0f222,601ae161bca3983decaca14d,AWAITING REVIEW,2021-11-30 16:16:15.629000,2021-11-30 16:39:41.769000,1406.14,35,117,0,100,,6612B13E,Czech Republic,Czech Republic,Full-Time,Czech,"Czech, English, French",Czech Republic,Female,No
61a64e43930de0ad88e0f223,614f35bf1999c67eb7b90c66,AWAITING REVIEW,2021-11-30 16:16:03.649000,2021-11-30 16:37:37.708000,1294.059,22,44,1,100,,6612B13E,Poland,Poland,Other,Polish,"Polish, English",Poland,Male,Yes
61a64e43bbac7a138c3b190a,5fbac83d339ea5b097c3ac28,RETURNED,2021-11-30 16:16:02.998000,,74433.362863,27,121,0,100,,,CONSENT REVOKED,CONSENT REVOKED,CONSENT REVOKED,CONSENT REVOKED,CONSENT REVOKED,CONSENT REVOKED,CONSENT REVOKED,CONSENT REVOKED
61a64e4409e30aef7eacc5e5,577d1216b425c40001434b2f,RETURNED,2021-11-30 16:16:15.330000,,74421.050169,38,1231,1,100,,,CONSENT REVOKED,CONSENT REVOKED,CONSENT REVOKED,CONSENT REVOKED,CONSENT REVOKED,CONSENT REVOKED,CONSENT REVOKED,CONSENT REVOKED
61a64e533af3400b40575358,5a6032228e625900017657f4,RETURNED,2021-11-30 16:16:22.472000,,74413.926104,29,851,5,99,,,CONSENT REVOKED,CONSENT REVOKED,CONSENT REVOKED,CONSENT REVOKED,CONSENT REVOKED,CONSENT REVOKED,CONSENT REVOKED,CONSENT REVOKED
61a64e54197884ae9c0988a7,60171c9b1a726593103182b3,AWAITING REVIEW,2021-11-30 16:16:42.299000,2021-11-30 16:35:58.877000,1156.578,48,380,0,100,,6612B13E,United States,United States,Part-Time,English,English,United States,Male,No
61a64e58fc61cc24c5582b4a,6138c15bd47ecca8b56a704f,RETURNED,2021-11-30 16:17:02.504000,,74373.948799,31,98,0,100,,,CONSENT REVOKED,CONSENT REVOKED,CONSENT REVOKED,CONSENT REVOKED,CONSENT REVOKED,CONSENT REVOKED,CONSENT REVOKED,CONSENT REVOKED
61a64e5f76df658c9d3b8767,610ae6190c360b52f90c9568,AWAITING REVIEW,2021-11-30 16:16:35.856000,2021-11-30 16:32:59.047000,983.191,58,119,0,100,,6612B13E,United Kingdom,United Kingdom,Part-Time,English,"English, French",United Kingdom,Female,No
61a64e6d6b5dfbcec9401539,614cddb9b329b42011f1876f,AWAITING REVIEW,2021-11-30 16:17:01.498000,2021-11-30 17:11:09.544000,3248.046,30,60,0,100,,6612B13E,United Kingdom,United Kingdom,Part-Time,English,English,United Kingdom,Female,No
61a64e8097262c7be2aeb788,5afdc329fca92600012695ca,AWAITING REVIEW,2021-11-30 16:17:30.501000,2021-11-30 16:31:27.593000,837.092,44,467,2,100,,6612B13E,United Kingdom,United Kingdom,Full-Time,English,English,United Kingdom,Female,No
61a64e9c18ad93083cf6f887,59d65ad8e2762800015eb51b,TIMED-OUT,2021-11-30 16:18:04.503000,,74312.047304,27,1396,2,100,,,United Kingdom,United Kingdom,Part-Time,English,English,United Kingdom,Female,Yes
61a64ec6f32a65395cd80031,610a9f8ba0cf35614ecb2a8d,AWAITING REVIEW,2021-11-30 16:18:24.098000,2021-11-30 16:35:04.325000,1000.227,47,57,0,100,,6612B13E,Poland,Poland,Full-Time,Polish,"English, Polish",Poland,Female,No
61a64ef66b5dfbcec9401542,602cf366166df76360257563,RETURNED,2021-11-30 16:19:02.192000,,74254.403578,18,39,0,100,,,CONSENT REVOKED,CONSENT REVOKED,CONSENT REVOKED,CONSENT REVOKED,CONSENT REVOKED,CONSENT REVOKED,CONSENT REVOKED,CONSENT REVOKED
61a64efcdf41ffb04a359aee,61322447efdb668e0b2e4f21,RETURNED,2021-11-30 16:19:13.042000,,74243.579498,18,42,1,100,,,CONSENT REVOKED,CONSENT REVOKED,CONSENT REVOKED,CONSENT REVOKED,CONSENT REVOKED,CONSENT REVOKED,CONSENT REVOKED,CONSENT REVOKED
61a64f3c9b37256ab93ccf80,5adef952f6b58c0001fa755b,AWAITING REVIEW,2021-11-30 16:20:21.597000,2021-11-30 16:39:53.075000,1171.478,56,1102,6,100,,6612B13E,United Kingdom,United Kingdom,Full-Time,English,English,United Kingdom,Male,No
61a64f596ee42b76d60e69ab,60fdaeed5a189c2ccb1e2668,AWAITING REVIEW,2021-11-30 16:21:25.390000,2021-11-30 16:43:21.820000,1316.43,33,51,0,100,,6612B13E,Poland,Poland,Full-Time,Polish,"English, Polish",Poland,Female,No
